<mxfile host="app.diagrams.net" modified="2021-03-24T01:50:31.451Z" agent="5.0 (X11; Linux x86_64) AppleWebKit/537.36 (KHTML, like Gecko) Chrome/87.0.4280.66 Safari/537.36" etag="pPnK_1vS7UvrcPCy5L0D" version="14.4.9" type="gitlab">
  <diagram id="CL2otHQ1gEwE2wOLQHMH" name="第 1 页">
    <mxGraphModel dx="1422" dy="801" grid="1" gridSize="10" guides="1" tooltips="1" connect="1" arrows="1" fold="1" page="1" pageScale="1" pageWidth="827" pageHeight="1169" math="0" shadow="0">
      <root>
        <mxCell id="0" />
        <mxCell id="1" parent="0" />
        <mxCell id="cfIzjHtvFUXzewJUHaiD-1" value="" style="rounded=0;whiteSpace=wrap;html=1;" vertex="1" parent="1">
          <mxGeometry x="480" y="150" width="200" height="240" as="geometry" />
        </mxCell>
        <mxCell id="cfIzjHtvFUXzewJUHaiD-2" value="Mongos2" style="rounded=1;whiteSpace=wrap;html=1;" vertex="1" parent="1">
          <mxGeometry x="510" y="175" width="140" height="50" as="geometry" />
        </mxCell>
        <mxCell id="cfIzjHtvFUXzewJUHaiD-3" value="&lt;span&gt;Arbiter2&lt;/span&gt;" style="rounded=1;whiteSpace=wrap;html=1;" vertex="1" parent="1">
          <mxGeometry x="510" y="245" width="140" height="50" as="geometry" />
        </mxCell>
        <mxCell id="cfIzjHtvFUXzewJUHaiD-6" value="" style="rounded=0;whiteSpace=wrap;html=1;" vertex="1" parent="1">
          <mxGeometry x="160" y="150" width="200" height="240" as="geometry" />
        </mxCell>
        <mxCell id="cfIzjHtvFUXzewJUHaiD-12" value="Mongos1" style="rounded=1;whiteSpace=wrap;html=1;" vertex="1" parent="1">
          <mxGeometry x="190" y="180" width="140" height="50" as="geometry" />
        </mxCell>
        <mxCell id="cfIzjHtvFUXzewJUHaiD-13" value="Arbiter1" style="rounded=1;whiteSpace=wrap;html=1;" vertex="1" parent="1">
          <mxGeometry x="190" y="250" width="140" height="50" as="geometry" />
        </mxCell>
        <mxCell id="cfIzjHtvFUXzewJUHaiD-16" value="" style="rounded=0;whiteSpace=wrap;html=1;" vertex="1" parent="1">
          <mxGeometry x="160" y="465" width="200" height="240" as="geometry" />
        </mxCell>
        <mxCell id="cfIzjHtvFUXzewJUHaiD-17" value="Shard1-主" style="rounded=1;whiteSpace=wrap;html=1;" vertex="1" parent="1">
          <mxGeometry x="190" y="485" width="140" height="50" as="geometry" />
        </mxCell>
        <mxCell id="cfIzjHtvFUXzewJUHaiD-18" value="&lt;span&gt;Shard2-从&lt;/span&gt;" style="rounded=1;whiteSpace=wrap;html=1;" vertex="1" parent="1">
          <mxGeometry x="190" y="555" width="140" height="50" as="geometry" />
        </mxCell>
        <mxCell id="cfIzjHtvFUXzewJUHaiD-21" value="" style="rounded=0;whiteSpace=wrap;html=1;" vertex="1" parent="1">
          <mxGeometry x="480" y="465" width="200" height="240" as="geometry" />
        </mxCell>
        <mxCell id="cfIzjHtvFUXzewJUHaiD-22" value="Shard2-主" style="rounded=1;whiteSpace=wrap;html=1;" vertex="1" parent="1">
          <mxGeometry x="510" y="485" width="140" height="50" as="geometry" />
        </mxCell>
        <mxCell id="cfIzjHtvFUXzewJUHaiD-23" value="&lt;span&gt;Shard1-从&lt;/span&gt;" style="rounded=1;whiteSpace=wrap;html=1;" vertex="1" parent="1">
          <mxGeometry x="510" y="555" width="140" height="50" as="geometry" />
        </mxCell>
        <mxCell id="cfIzjHtvFUXzewJUHaiD-27" value="config" style="rounded=1;whiteSpace=wrap;html=1;" vertex="1" parent="1">
          <mxGeometry x="190" y="630" width="140" height="50" as="geometry" />
        </mxCell>
        <mxCell id="cfIzjHtvFUXzewJUHaiD-28" value="config" style="rounded=1;whiteSpace=wrap;html=1;" vertex="1" parent="1">
          <mxGeometry x="510" y="630" width="140" height="50" as="geometry" />
        </mxCell>
        <mxCell id="cfIzjHtvFUXzewJUHaiD-29" value="config" style="rounded=1;whiteSpace=wrap;html=1;" vertex="1" parent="1">
          <mxGeometry x="510" y="315" width="140" height="50" as="geometry" />
        </mxCell>
      </root>
    </mxGraphModel>
  </diagram>
</mxfile>
